%YAML 1.1
%TAG !u! tag:unity3d.com,2011:
--- !u!114 &11400000
MonoBehaviour:
  m_ObjectHideFlags: 0
  m_CorrespondingSourceObject: {fileID: 0}
  m_PrefabInstance: {fileID: 0}
  m_PrefabAsset: {fileID: 0}
  m_GameObject: {fileID: 0}
  m_Enabled: 1
  m_EditorHideFlags: 0
  m_Script: {fileID: 11500000, guid: 38701da255bce0c4d857b2f2a2dc2445, type: 3}
  m_Name: Enemy
  m_EditorClassIdentifier: 
  charName: Enemy
  healthPoint: 1
  damage: 1
  fireRate: 1
